Library\Bee\artifacts\mvdfrm\Unity.2D.Sprite.Editor.ref.dll_DDBAA27A82CE9E28.mvfrm
Library\Bee\artifacts\mvdfrm\UnityEditor.TestRunner.ref.dll_193EC4CE382CBFB3.mvfrm
Library\Bee\artifacts\mvdfrm\UnityEditor.UI.ref.dll_4C98D3F7040CD4F5.mvfrm
Library\Bee\artifacts\mvdfrm\UnityEngine.TestRunner.ref.dll_E55D0F7C63F01D9E.mvfrm
Library\Bee\artifacts\mvdfrm\UnityEngine.UI.ref.dll_08FEAA520A2EFD60.mvfrm
Library\Bee\artifacts\mvdfrm\UnityEditor.Graphs.dll_6C5149C5FC674290.mvfrm
Library\Bee\artifacts\mvdfrm\UnityEditor.CoreModule.dll_8580568FFFA0965E.mvfrm
Library\Bee\artifacts\mvdfrm\UnityEditor.DeviceSimulatorModule.dll_B47B37A4239FD7C3.mvfrm
Library\Bee\artifacts\mvdfrm\UnityEditor.DiagnosticsModule.dll_561E3725C93BE151.mvfrm
Library\Bee\artifacts\mvdfrm\UnityEditor.dll_E75607A7A68F04D7.mvfrm
Library\Bee\artifacts\mvdfrm\UnityEditor.EditorToolbarModule.dll_7BEBB4B9C7702B33.mvfrm
Library\Bee\artifacts\mvdfrm\UnityEditor.GraphViewModule.dll_15951CA9A2E88508.mvfrm
Library\Bee\artifacts\mvdfrm\UnityEditor.PresetsUIModule.dll_D0FB558BA540DD0D.mvfrm
Library\Bee\artifacts\mvdfrm\UnityEditor.QuickSearchModule.dll_E12DB8332212DDAA.mvfrm
Library\Bee\artifacts\mvdfrm\UnityEditor.SceneTemplateModule.dll_9F8B2577C65CD56B.mvfrm
Library\Bee\artifacts\mvdfrm\UnityEditor.SceneViewModule.dll_5444FFB1980B5216.mvfrm
Library\Bee\artifacts\mvdfrm\UnityEditor.TextCoreFontEngineModule.dll_136256E8CD70E61C.mvfrm
Library\Bee\artifacts\mvdfrm\UnityEditor.TextCoreTextEngineModule.dll_5B4A8D5A5CF49F3A.mvfrm
Library\Bee\artifacts\mvdfrm\UnityEditor.UIBuilderModule.dll_6A1DC9C615A0FE3C.mvfrm
Library\Bee\artifacts\mvdfrm\UnityEditor.UIElementsModule.dll_421D3A01546E14DA.mvfrm
Library\Bee\artifacts\mvdfrm\UnityEditor.UIElementsSamplesModule.dll_E94DE807E904D833.mvfrm
Library\Bee\artifacts\mvdfrm\UnityEditor.UnityConnectModule.dll_1EAE5A8000027414.mvfrm
Library\Bee\artifacts\mvdfrm\UnityEngine.AccessibilityModule.dll_D230910EC6D2FD08.mvfrm
Library\Bee\artifacts\mvdfrm\UnityEngine.AIModule.dll_E4525AAC032E44F2.mvfrm
Library\Bee\artifacts\mvdfrm\UnityEngine.AndroidJNIModule.dll_C06622D49D8D83B0.mvfrm
Library\Bee\artifacts\mvdfrm\UnityEngine.AnimationModule.dll_E41A98D27D4559AE.mvfrm
Library\Bee\artifacts\mvdfrm\UnityEngine.ARModule.dll_9DC51FAF604BA3BB.mvfrm
Library\Bee\artifacts\mvdfrm\UnityEngine.AssetBundleModule.dll_2516EB248479929C.mvfrm
Library\Bee\artifacts\mvdfrm\UnityEngine.AudioModule.dll_1E7C9408A0039F20.mvfrm
Library\Bee\artifacts\mvdfrm\UnityEngine.ClothModule.dll_8564F1037A207E04.mvfrm
Library\Bee\artifacts\mvdfrm\UnityEngine.ClusterInputModule.dll_9E4ACF95B18A46DA.mvfrm
Library\Bee\artifacts\mvdfrm\UnityEngine.ClusterRendererModule.dll_BA27FA15935AE547.mvfrm
Library\Bee\artifacts\mvdfrm\UnityEngine.ContentLoadModule.dll_BE2D446552FC3A89.mvfrm
Library\Bee\artifacts\mvdfrm\UnityEngine.CoreModule.dll_A8A129E2A7A60189.mvfrm
Library\Bee\artifacts\mvdfrm\UnityEngine.CrashReportingModule.dll_670A9F1F2E5A64C1.mvfrm
Library\Bee\artifacts\mvdfrm\UnityEngine.DirectorModule.dll_8D4B9DB0036DE9E6.mvfrm
Library\Bee\artifacts\mvdfrm\UnityEngine.dll_19FA4E80050291BC.mvfrm
Library\Bee\artifacts\mvdfrm\UnityEngine.DSPGraphModule.dll_929CFF1975CEBB07.mvfrm
Library\Bee\artifacts\mvdfrm\UnityEngine.GameCenterModule.dll_EAB36CEF63CE74A1.mvfrm
Library\Bee\artifacts\mvdfrm\UnityEngine.GIModule.dll_7C8EA3B99EDD2D0C.mvfrm
Library\Bee\artifacts\mvdfrm\UnityEngine.GridModule.dll_861245D0BFFA9780.mvfrm
Library\Bee\artifacts\mvdfrm\UnityEngine.HotReloadModule.dll_656356D858787530.mvfrm
Library\Bee\artifacts\mvdfrm\UnityEngine.ImageConversionModule.dll_2619F7C6157F9D3B.mvfrm
Library\Bee\artifacts\mvdfrm\UnityEngine.IMGUIModule.dll_56DC336F66353301.mvfrm
Library\Bee\artifacts\mvdfrm\UnityEngine.InputLegacyModule.dll_B65C06431C6B488D.mvfrm
Library\Bee\artifacts\mvdfrm\UnityEngine.InputModule.dll_84F25BB9163BC3C4.mvfrm
Library\Bee\artifacts\mvdfrm\UnityEngine.JSONSerializeModule.dll_32481A4AC60E5D92.mvfrm
Library\Bee\artifacts\mvdfrm\UnityEngine.LocalizationModule.dll_DC9799E8490639D3.mvfrm
Library\Bee\artifacts\mvdfrm\UnityEngine.NVIDIAModule.dll_DE8A07311FB1B115.mvfrm
Library\Bee\artifacts\mvdfrm\UnityEngine.ParticleSystemModule.dll_BA1CE86B9C6BF04F.mvfrm
Library\Bee\artifacts\mvdfrm\UnityEngine.PerformanceReportingModule.dll_68C779CDA41F5F48.mvfrm
Library\Bee\artifacts\mvdfrm\UnityEngine.Physics2DModule.dll_30C088C31E425143.mvfrm
Library\Bee\artifacts\mvdfrm\UnityEngine.PhysicsModule.dll_4C344C6653F46DF1.mvfrm
Library\Bee\artifacts\mvdfrm\UnityEngine.ProfilerModule.dll_BF91D6E69CC770F3.mvfrm
Library\Bee\artifacts\mvdfrm\UnityEngine.PropertiesModule.dll_17EEAC2DD6B9D8DD.mvfrm
Library\Bee\artifacts\mvdfrm\UnityEngine.RuntimeInitializeOnLoadManagerInitializerModule.dll_52594C824172C80C.mvfrm
Library\Bee\artifacts\mvdfrm\UnityEngine.ScreenCaptureModule.dll_4C2FC7CFDA7A89F4.mvfrm
Library\Bee\artifacts\mvdfrm\UnityEngine.SharedInternalsModule.dll_AA2B369B8CAD988B.mvfrm
Library\Bee\artifacts\mvdfrm\UnityEngine.SpriteMaskModule.dll_D3DFDF7F853E0A1B.mvfrm
Library\Bee\artifacts\mvdfrm\UnityEngine.SpriteShapeModule.dll_3E78187F3A1BCAA6.mvfrm
Library\Bee\artifacts\mvdfrm\UnityEngine.StreamingModule.dll_98AF8622CCCD10EC.mvfrm
Library\Bee\artifacts\mvdfrm\UnityEngine.SubstanceModule.dll_755A9A6C18200EFA.mvfrm
Library\Bee\artifacts\mvdfrm\UnityEngine.SubsystemsModule.dll_3E8D45E15385F22E.mvfrm
Library\Bee\artifacts\mvdfrm\UnityEngine.TerrainModule.dll_667AC7D529B2B6DF.mvfrm
Library\Bee\artifacts\mvdfrm\UnityEngine.TerrainPhysicsModule.dll_BA97913EB5AEEADC.mvfrm
Library\Bee\artifacts\mvdfrm\UnityEngine.TextCoreFontEngineModule.dll_91C1D23BE06EA4E7.mvfrm
Library\Bee\artifacts\mvdfrm\UnityEngine.TextCoreTextEngineModule.dll_D9AA08AD6FF25E05.mvfrm
Library\Bee\artifacts\mvdfrm\UnityEngine.TextRenderingModule.dll_756F39DA91B209E9.mvfrm
Library\Bee\artifacts\mvdfrm\UnityEngine.TilemapModule.dll_05772F56416F97E8.mvfrm
Library\Bee\artifacts\mvdfrm\UnityEngine.TLSModule.dll_27893D3F8D7C5A85.mvfrm
Library\Bee\artifacts\mvdfrm\UnityEngine.UIElementsModule.dll_42CBA74956B22E25.mvfrm
Library\Bee\artifacts\mvdfrm\UnityEngine.UIModule.dll_DFC5F8D95F754A9E.mvfrm
Library\Bee\artifacts\mvdfrm\UnityEngine.UmbraModule.dll_995140212D2A4A93.mvfrm
Library\Bee\artifacts\mvdfrm\UnityEngine.UnityAnalyticsCommonModule.dll_04063711BE07FDA6.mvfrm
Library\Bee\artifacts\mvdfrm\UnityEngine.UnityAnalyticsModule.dll_D9BC59354893424B.mvfrm
Library\Bee\artifacts\mvdfrm\UnityEngine.UnityConnectModule.dll_0C0DDE8EFA8A74BF.mvfrm
Library\Bee\artifacts\mvdfrm\UnityEngine.UnityCurlModule.dll_17373A03ED594B9B.mvfrm
Library\Bee\artifacts\mvdfrm\UnityEngine.UnityTestProtocolModule.dll_A5109DFA43002D89.mvfrm
Library\Bee\artifacts\mvdfrm\UnityEngine.UnityWebRequestAssetBundleModule.dll_AD7BB3C5E893A55C.mvfrm
Library\Bee\artifacts\mvdfrm\UnityEngine.UnityWebRequestAudioModule.dll_E0C3CDAC2A8A29E0.mvfrm
Library\Bee\artifacts\mvdfrm\UnityEngine.UnityWebRequestModule.dll_37B8FF70207437BA.mvfrm
Library\Bee\artifacts\mvdfrm\UnityEngine.UnityWebRequestTextureModule.dll_E6352EBB4046BBB5.mvfrm
Library\Bee\artifacts\mvdfrm\UnityEngine.UnityWebRequestWWWModule.dll_A46C4E095FB21A71.mvfrm
Library\Bee\artifacts\mvdfrm\UnityEngine.VehiclesModule.dll_050E972F7D97B981.mvfrm
Library\Bee\artifacts\mvdfrm\UnityEngine.VFXModule.dll_A867D5AE63E9C3F2.mvfrm
Library\Bee\artifacts\mvdfrm\UnityEngine.VideoModule.dll_438618736295BAC5.mvfrm
Library\Bee\artifacts\mvdfrm\UnityEngine.VirtualTexturingModule.dll_B403235BB6354AE7.mvfrm
Library\Bee\artifacts\mvdfrm\UnityEngine.VRModule.dll_32981F5F012FD016.mvfrm
Library\Bee\artifacts\mvdfrm\UnityEngine.WindModule.dll_1EF0050B38DC7FF2.mvfrm
Library\Bee\artifacts\mvdfrm\UnityEngine.XRModule.dll_6556E2638A6A1D74.mvfrm
Library\Bee\artifacts\mvdfrm\UnityEditor.WebGL.Extensions.dll_95186B9014A53932.mvfrm
Library\Bee\artifacts\mvdfrm\UnityEditor.WindowsStandalone.Extensions.dll_4113971389D2AF22.mvfrm
Library\Bee\artifacts\mvdfrm\Unity.Plastic.Antlr3.Runtime.dll_06567403B026473B.mvfrm
Library\Bee\artifacts\mvdfrm\Unity.Plastic.Newtonsoft.Json.dll_2AAE32905E8C08CA.mvfrm
Library\Bee\artifacts\mvdfrm\Unity.Collections.LowLevel.ILSupport.dll_2E40CE80E145E521.mvfrm
Library\Bee\artifacts\mvdfrm\Unity.VisualScripting.IonicZip.dll_3753AE2E22DD17B6.mvfrm
Library\Bee\artifacts\mvdfrm\Unity.VisualScripting.YamlDotNet.dll_B9EB2E0105A28BA6.mvfrm
Library\Bee\artifacts\mvdfrm\Unity.VisualScripting.TextureAssets.dll_51095754C66FE99E.mvfrm
Library\Bee\artifacts\mvdfrm\Unity.VisualScripting.Antlr3.Runtime.dll_6B5854E2366B9BC5.mvfrm